…
``` r
limma_exclusive_DEGs = limma_results_filtered %>%
  anti_join(DEG_data_filtered, by = 'ID_REF')

print(limma_exclusive_DEGs)
```

    ## # A tibble: 22 × 13
    ##    ID_REF   logFC P.Value adj.P.Val mean_AML sd_AML min_AML max_AML mean_Control
    ##    <chr>    <dbl>   <dbl>     <dbl>    <dbl>  <dbl>   <dbl>   <dbl>        <dbl>
    ##  1 201169_…  1.33 0.00131    0.0175     5.18   2.18    2.20    8.90         3.86
    ##  2 204160_… -1.04 0.00213    0.0245     5.07   1.72    2.08    8.27         6.10
    ##  3 210665_…  1.34 0.00214    0.0246     4.85   2.32    1.74    8.90         3.51
    ##  4 212671_… -1.69 0.00220    0.0250     7.26   2.94    2.40   12.8          8.95
    ##  5 218232_…  1.03 0.00248    0.0272     4.09   1.93    2.85    9.31         3.06
    ##  6 217838_… -1.06 0.00324    0.0324     7.03   1.64    3.13    9.44         8.09
    ##  7 200923_…  1.17 0.00329    0.0327     6.32   2.29    3.01    9.85         5.15
    ##  8 214575_…  2.15 0.00350    0.0339     8.11   3.23    3.31   12.6          5.96
    ##  9 208727_…  1.09 0.00356    0.0343     9.74   1.60    6.55   13.1          8.65
    ## 10 204646_… -1.24 0.00356    0.0343     6.76   2.16    2.92   10.7          8.00
    ## # ℹ 12 more rows
    ## # ℹ 4 more variables: sd_Control <dbl>, min_Control <dbl>, max_Control <dbl>,
    ## #   Fold_change <dbl>
…
